…
4 conditions x 6 character lists = 24 groups, each of which has 3 trials
(1 he/him character, 1 she/her character, 1 they/them character).

``` r
d_char %>% group_by(group) %>% summarise(n())
```

    ## # A tibble: 24 x 2
    ##    group `n()`
    ##    <int> <int>
    ##  1     1     3
    ##  2     2     3
    ##  3     3     3
    ##  4     4     3
    ##  5     5     3
    ##  6     6     3
    ##  7     7     3
    ##  8     8     3
    ##  9     9     3
    ## 10    10     3
    ## # ... with 14 more rows
…
4 conditions x 6 character lists = 24 groups, each of which has 3 trials
(1 he/him character, 1 she/her character, 1 they/them character). The
Nametag, but not the Introduction condition varies here, but need the
items repeated to keep group assignment consistent in PCIbex.

36 = 3 example + 3 practice + 30 test trials per group

``` r
d %>% group_by(group) %>% summarise(n())
```

    ## # A tibble: 24 x 2
    ##    group `n()`
    ##    <int> <int>
    ##  1     1    36
    ##  2     2    36
    ##  3     3    36
    ##  4     4    36
    ##  5     5    36
    ##  6     6    36
    ##  7     7    36
    ##  8     8    36
    ##  9     9    36
    ## 10    10    36
    ## # ... with 14 more rows
…
### Test trials

Sibling that receives object is distributed evenly.

``` r
d %>% filter(trial_type=="test") %>%
  group_by(sibling_image) %>%
  summarise(n=n()) 
```

    ## # A tibble: 36 x 2
    ##    sibling_image             n
    ##    <fct>                 <int>
    ##  1 HT1_brother_brian.png    20
    ##  2 HT1_brother_dan.png      20
    ##  3 HT1_brother_sam.png      20
    ##  4 HT1_sister_brian.png     20
    ##  5 HT1_sister_dan.png       20
    ##  6 HT1_sister_sam.png       20
    ##  7 HT2_brother_alex.png     20
    ##  8 HT2_brother_brian.png    20
    ##  9 HT2_brother_dan.png      20
    ## 10 HT2_sister_alex.png      20
    ## # ... with 26 more rows
…
## Objects

36 objects, 1 for each trial frame (3 + 3 + 30).

``` r
d %>% group_by(trial_type, object_image) %>% summarise(n())
```

    ## # A tibble: 36 x 3
    ## # Groups:   trial_type [3]
    ##    trial_type object_image `n()`
    ##    <chr>      <fct>        <int>
    ##  1 example    fork.png        24
    ##  2 example    peach.png       24
    ##  3 example    pepper.png      24
    ##  4 practice   hotdog.png      24
    ##  5 practice   popcorn.png     24
    ##  6 practice   sandwich.png    24
    ##  7 test       apple.png       24
    ##  8 test       avocado.png     24
    ##  9 test       bacon.png       24
    ## 10 test       banana.png      24
    ## # ... with 26 more rows
…
### Sibling & object position

Sibling/object counterbalanced. (Just checking test trials b/c can’t
balance 3 test and 3 practice across 4 positions.)

``` r
d %>% filter(trial_type=="test") %>%
  group_by(character_set) %>%
  count(sibling_pos)  
```

    ## # A tibble: 24 x 3
    ## # Groups:   character_set [6]
    ##    character_set sibling_pos      n
    ##            <int> <chr>        <int>
    ##  1             1 bottom left     32
    ##  2             1 bottom right    28
    ##  3             1 top left        28
    ##  4             1 top right       32
    ##  5             2 bottom left     32
    ##  6             2 bottom right    28
    ##  7             2 top left        28
    ##  8             2 top right       32
    ##  9             3 bottom left     28
    ## 10             3 bottom right    32
    ## # ... with 14 more rows

## Correct answer

Equal number of his/her/their brother/sister correct answers per list.

``` r
d %<>% mutate(.after="sibling_image", sibling_type=case_when(
  str_detect(sibling_image, "brother") ~ "brother",
  str_detect(sibling_image, "sister") ~ "sister"))

d %>% group_by(character_set) %>% 
  count(target_pronoun, sibling_type)  
```

    ## # A tibble: 36 x 4
    ## # Groups:   character_set [6]
    ##    character_set target_pronoun sibling_type     n
    ##            <int> <fct>          <chr>        <int>
    ##  1             1 he/him         brother         24
    ##  2             1 he/him         sister          24
    ##  3             1 she/her        brother         24
    ##  4             1 she/her        sister          24
    ##  5             1 they/them      brother         24
    ##  6             1 they/them      sister          24
    ##  7             2 he/him         brother         24
    ##  8             2 he/him         sister          24
    ##  9             2 she/her        brother         24
    ## 10             2 she/her        sister          24
    ## # ... with 26 more rows
…
Check to make sure they’re all there:

``` r
files <- list.files("Images/Characters_300px/", pattern="*.png") 
files %<>% append(list.files("Images/Objects_300px/", pattern="*.png"))

image_list %<>% mutate(exist=file_name %in% files) 

image_list  
```

    ## # A tibble: 108 x 2
    ##    file_name                exist
    ##    <fct>                    <lgl>
    ##  1 HT1_he_brian.png         TRUE 
    ##  2 HT1_he_brian_nametag.png TRUE 
    ##  3 HT1_he_sam.png           TRUE 
    ##  4 HT1_he_sam_nametag.png   TRUE 
    ##  5 HT1_they_dan.png         TRUE 
    ##  6 HT1_they_dan_nametag.png TRUE 
    ##  7 HT2_he_alex.png          TRUE 
    ##  8 HT2_he_alex_nametag.png  TRUE 
    ##  9 HT2_he_dan.png           TRUE 
    ## 10 HT2_he_dan_nametag.png   TRUE 
    ## # ... with 98 more rows
…
